…
#### Summary Statistics of Region Prices

``` r
df %>%
  group_by(Region) %>%
  summarise(MinPrice=min(AveragePrice),
            MeanPrice=round(mean(AveragePrice),2),
            MedianPrice = round(median(AveragePrice), 2),
            MaxPrice=max(AveragePrice)) %>%
  arrange(MinPrice) 
```

    ## # A tibble: 54 × 5
    ##    Region           MinPrice MeanPrice MedianPrice MaxPrice
    ##    <chr>               <dbl>     <dbl>       <dbl>    <dbl>
    ##  1 CincinnatiDayton     0.44      1.21        1.1      2.2 
    ##  2 PhoenixTucson        0.46      1.22        1.23     2.62
    ##  3 Detroit              0.48      1.28        1.23     2.08
    ##  4 Houston              0.51      1.05        0.98     1.92
    ##  5 Nashville            0.51      1.21        1.1      2.24
    ##  6 Columbus             0.52      1.25        1.18     2.22
    ##  7 WestTexNewMexico     0.52      1.26        1.14     2.93
    ##  8 LosAngeles           0.53      1.22        1.14     2.44
    ##  9 Jacksonville         0.54      1.51        1.47     2.99
    ## 10 LasVegas             0.54      1.38        1.27     3.03
    ## # ℹ 44 more rows
…
